{
  "extends": ["tslint:latest", "tslint-config-prettier"],
  "rules": {
    "arrow-parens": false,
    "no-console": false,
    "no-implicit-dependencies": [true, "dev"],
    "ordered-imports": false,
    "object-literal-sort-keys": false,
    "variable-name": [true, "allow-leading-underscore", "allow-pascal-case"]
  }
}
